<?xml version="1.0" encoding="UTF-8"?>
<svg width="20px" height="30px" viewBox="0 0 20 30" version="1.1" xmlns="http://www.w3.org/2000/svg" xmlns:xlink="http://www.w3.org/1999/xlink">
    <!-- Generator: Sketch 52.5 (67469) - http://www.bohemiancoding.com/sketch -->
    <title>noun_edit_330472</title>
    <desc>Created with Sketch.</desc>
    <g id="Page-1" stroke="none" stroke-width="1" fill="none" fill-rule="evenodd" opacity="0.5">
        <g id="Landing-Page" transform="translate(-340.000000, -305.000000)" fill="#FFFFFF">
            <g id="Menu_Main" transform="translate(310.000000, 160.000000)">
                <g id="noun_edit_330472" transform="translate(30.000000, 145.000000)">
                    <path d="M4.41860465,0 C2.02745465,0 0.0922584884,1.90101935 0.0145348837,4.27325581 C0.0052480014,4.31865916 -2.36860353e-19,4.37046512 0,4.41860465 L0,23.9534884 L0,24.8837209 C0,27.324186 1.97813953,29.3023256 4.41860465,29.3023256 L15.5813953,29.3023256 C18.0213953,29.3023256 20,27.324186 20,24.8837209 L20,23.9534884 L20,4.41860465 C20,4.37046512 19.9947637,4.31865916 19.9854651,4.27325581 C19.9077237,1.90101935 17.9720898,1.12423009e-17 15.5813953,0 L4.41860465,0 Z M4.41860465,1.39534884 L15.5813953,1.39534884 C17.01052,1.39534884 18.2019805,2.38826842 18.5174419,3.72093023 L1.48255814,3.72093023 C1.79801958,2.38826842 2.98948019,1.39534884 4.41860465,1.39534884 Z M10.4651163,1.80232558 C9.95162791,1.80232558 9.53488372,2.21860465 9.53488372,2.73255814 C9.53488372,3.24604651 9.95162791,3.6627907 10.4651163,3.6627907 C10.9790698,3.6627907 11.3953488,3.24604651 11.3953488,2.73255814 C11.3953488,2.21860465 10.9790698,1.80232558 10.4651163,1.80232558 Z M1.39534884,5.11627907 L18.6046512,5.11627907 L18.6046512,23.255814 L1.39534884,23.255814 L1.39534884,5.11627907 Z M12.994186,9.21511628 C12.4272093,9.21511628 11.8975581,9.43918605 11.497093,9.84011628 L5.4505814,15.8866279 C5.35011628,15.987093 5.28674419,16.11 5.26162791,16.25 L4.8255814,18.7063953 C4.7855814,18.9305814 4.85313953,19.1554651 5.01453488,19.3168605 C5.14616279,19.4489535 5.325,19.5203488 5.50872093,19.5203488 C5.54965116,19.5203488 5.58406977,19.5277907 5.625,19.5203488 L8.08139535,19.0697674 C8.22139535,19.0446512 8.35883721,18.9812791 8.45930233,18.880814 L14.4912791,12.8488372 C14.8922093,12.447907 15.1162791,11.9037209 15.1162791,11.3372093 C15.1162791,10.7697674 14.8922093,10.2405814 14.4912791,9.84011628 C14.0903488,9.43918605 13.5611628,9.21511628 12.994186,9.21511628 Z M12.994186,10.625 C13.1826744,10.625 13.3797674,10.6903488 13.5174419,10.8284884 C13.6551163,10.9656977 13.7209302,11.1427907 13.7209302,11.3372093 C13.7209302,11.5316279 13.6551163,11.7227907 13.5174419,11.8604651 L7.63081395,17.747093 L6.36627907,17.9651163 L6.59883721,16.7151163 L12.4854651,10.8284884 C12.6226744,10.690814 12.8056977,10.625 12.994186,10.625 Z M1.39534884,24.6511628 L18.6046512,24.6511628 L18.6046512,24.8837209 C18.6046512,26.5534884 17.2511628,27.9069767 15.5813953,27.9069767 L4.41860465,27.9069767 C2.74883721,27.9069767 1.39534884,26.5534884 1.39534884,24.8837209 L1.39534884,24.6511628 Z M9.09883721,25.5813953 C8.71372093,25.5813953 8.40116279,25.8939535 8.40116279,26.2790698 C8.40116279,26.664186 8.71372093,26.9767442 9.09883721,26.9767442 L11.4244186,26.9767442 C11.8095349,26.9767442 12.122093,26.664186 12.122093,26.2790698 C12.122093,25.8939535 11.8095349,25.5813953 11.4244186,25.5813953 L9.09883721,25.5813953 Z" id="Shape"></path>
                </g>
            </g>
        </g>
    </g>
</svg>